A;
1;
11;
01.11-3;3
01.12-1;3
01.13-0;3
01.14-8;3
01.15-6;3
01.16-4;3
01.19-9;3
12;
01.21-1;3
01.22-9;3
13;
01.31-8;3
01.32-6;3
01.33-4;3
01.34-2;3
01.35-1;3
01.39-3;3
14;
01.41-5;3
01.42-3;3
15;
01.51-2;3
01.52-1;3
01.53-9;3
01.54-7;3
01.55-5;3
01.59-8;3
16;
01.61-0;3
01.62-8;3
01.63-6;3
17;
01.70-9;3
2;
21;
02.10-1;3
22;
02.20-9;4
23;
02.30-6;3
3;
31;
03.11-6;3
03.12-4;3
32;
03.21-3;3
03.22-1;3
B;
5;
50;
05.00-3;4
6;
60;
06.00-0;4
7;
71;
07.10-3;4
72;
07.21-9;4
07.22-7;4
07.23-5;4
07.24-3;4
07.25-1;4
07.29-4;4
8;
81;
08.10-0;4
89;
08.91-6;4
08.92-4;4
08.93-2;4
08.99-1;4
9;
91;
09.10-6;4
99;
09.90-4;4
C;
10;
101;
10.11-2;3
10.12-1;3
10.13-9;3
102;
10.20-1;3
103;
10.31-7;3
10.32-5;3
10.33-3;3
104;
10.41-4;3
10.42-2;3
10.43-1;3
105;
10.51-1;3
10.52-0;3
10.53-8;3
106;
10.61-9;3
10.62-7;3
10.63-5;3
10.64-3;3
10.65-1;3
10.66-0;3
10.69-4;3
107;
10.71-6;3
10.72-4;3
108;
10.81-3;3
10.82-1;3
109;
10.91-1;3
10.92-9;3
10.93-7;3
10.94-5;3
10.95-3;3
10.96-1;3
10.99-6;3
11;
111;
11.11-9;3
11.12-7;3
11.13-5;3
112;
11.21-6;3
11.22-4;3
12;
121;
12.10-7;3
122;
12.20-4;3
13;
131;
13.11-1;3
13.12-0;3
13.13-8;3
13.14-6;3
132;
13.21-9;3
13.22-7;3
13.23-5;3
133;
13.30-8;3
134;
13.40-5;3
135;
13.51-1;3
13.52-9;3
13.53-7;3
13.54-5;3
13.59-6;3
14;
141;
14.11-8;2
14.12-6;2
14.13-4;2
14.14-2;2
142;
14.21-5;2
14.22-3;2
15;
151;
15.10-6;3
152;
15.21-1;2
15.29-7;2
153;
15.31-9;3
15.32-7;3
15.33-5;3
15.39-4;3
154;
15.40-8;3
16;
161;
16.10-2;3
162;
16.21-8;3
16.22-6;3
16.23-4;3
16.29-3;3
17;
171;
17.10-9;3
172;
17.21-4;3
17.22-2;3
173;
17.31-1;2
17.32-0;2
17.33-8;2
174;
17.41-9;2
17.42-7;2
17.49-4;2
18;
181;
18.11-3;3
18.12-1;3
18.13-0;3
182;
18.21-1;3
18.22-9;3
183;
18.30-0;3
19;
191;
19.10-1;3
192;
19.21-7;3
19.22-5;3
193;
19.31-4;3
19.32-2;3
20;
201;
20.11-8;3
20.12-6;3
20.13-4;3
20.14-2;3
20.19-3;3
202;
20.21-5;3
20.22-3;3
20.29-1;3
203;
20.31-2;3
20.32-1;3
20.33-9;3
204;
20.40-1;3
205;
20.51-7;3
20.52-5;3
206;
20.61-4;3
20.62-2;3
20.63-1;2
207;
20.71-1;3
20.72-0;3
20.73-8;3
209;
20.91-6;3
20.92-4;4
20.93-2;3
20.94-1;3
20.99-1;3
21.10-6;3
212;
21.21-1;3
21.22-0;3
21.23-8;3
22;
221;
22.11-1;3
22.12-9;3
22.19-6;3
222;
22.21-8;3
22.22-6;3
22.23-4;3
22.29-3;3
23;
231;
23.11-7;3
23.12-5;3
23.19-2;3
232;
23.20-6;4
233;
23.30-3;4
234;
23.41-9;4
23.42-7;3
(Grau de Risco alterado pela Portaria SIT n.º 128, de 11 de dezembro de 2009);
23.49-4;4
239;
23.91-5;3
23.92-3;4
23.99-1;3
24;
241;
24.11-3;4
24.12-1;4
242;
24.21-1;4
24.22-9;4
24.23-7;4
24.24-5;4
243;
24.31-8;4
24.39-3;4
244;
24.41-5;4
24.42-3;4
24.43-1;4
24.49-1;4
245;
24.51-2;4
24.52-1;4
25;
251;
25.11-0;4
25.12-8;3
25.13-6;3
252;
25.21-7;3
25.22-5;3
253;
25.31-4;4
25.32-2;4
25.39-0;4
254;
25.41-1;3
25.42-0;3
25.43-8;3
255;
25.50-1;4
259;
25.91-8;3
25.92-6;4
25.93-4;3
25.99-3;3
26;
261;
26.10-8;3
262;
26.21-3;3
26.22-1;3
263;
26.31-1;3
26.32-9;3
264;
26.40-0;3
265;
26.51-5;3
26.52-3;3
266;
26.60-4;3
267;
26.70-1;3
268;
26.80-9;3
27;
271;
27.10-4;3
272;
27.21-0;3
27.22-8;3
273;
27.31-7;3
27.32-5;3
27.33-3;3
274;
27.40-6;3
275;
27.51-1;3
27.59-7;3
279;
27.90-2;3
28;
281;
28.11-9;3
28.12-7;3
28.13-5;3
28.14-3;3
28.15-1;3
282;
28.21-6;3
28.22-4;3
28.23-2;3
28.24-1;3
28.25-9;3
28.29-1;3
283;
28.31-3;3
28.32-1;3
28.33-0;3
284;
28.40-2;3
285;
28.51-8;3
28.52-6;3
28.53-4;3
28.54-2;3
286;
28.61-5;3
28.62-3;3
28.63-1;3
28.64-0;3
28.65-8;3
28.66-6;3
28.69-1;3
29;
291;
29.10-7;3
292;
29.20-4;3
293;
29.30-1;3
294;
29.41-7;3
29.42-5;3
29.43-3;3
29.44-1;3
29.45-0;3
29.49-2;3
295;
29.50-6;3
30;
301;
30.11-3;3
30.12-1;3
303;
30.31-8;3
30.32-6;3
304;
30.41-5;3
30.42-3;3
305;
30.50-4;3
309;
30.91-1;3
30.92-0;3
30.99-7;3
31;
310;
31.01-2;3
31.02-1;3
31.03-9;3
31.04-7;2
32;
321;
32.11-6;3
32.12-4;3
322;
32.20-5;3
323;
32.30-2;3
324;
32.40-0;3
325;
32.50-7;3
329;
32.91-4;3
32.92-2;3
32.99-0;3
33;
331;
33.11-2;3
33.12-1;3
33.13-9;3
33.14-7;3
33.15-5;3
33.16-3;3
33.17-1;3
33.19-8;3
332;
33.21-0;3
33.29-5;3
D;
35;
351;
35.11-5;3
35.12-3;3
35.13-1;3
35.14-0;3
352;
35.20-4;3
353;
35.30-1;3
E;
36;
360;
36.00-6;3
37;
370;
37.01-1;3
37.02-9;3
38;
381;
38.11-4;3
38.12-2;3
382;
38.21-1;3
38.22-0;3
383;
38.31-9;3
38.32-7;3
38.39-4;3
39;
390;
39.00-5;3
F;
41;
411;
41.10-7;1
412;
41.20-4;3
42;
421;
42.11-1;4
42.12-0;4
42.13-8;3
422;
42.21-9;4
42.22-7;4
42.23-5;4
429;
42.91-0;4
42.92-8;4
42.99-5;3
43;
431;
43.11-8;4
43.12-6;4
43.13-4;3
43.19-3;3
432;
43.21-5;3
43.22-3;3
43.29-1;3
433;
43.30-4;3
439;
43.91-6;4
43.99-1;3
G;
45;
451;
45.11-1;2
45.12-9;2
452;
45.20-0;3
453;
45.30-7;2
454;
45.41-2;2
45.42-1;2
45.43-9;3
46;
461;
46.11-7;2
46.12-5;2
46.13-3;2
46.14-1;2
46.15-0;2
46.16-8;2
46.17-6;2
46.18-4;2
46.19-2;2
462;
46.21-4;2
46.22-2;2
46.23-1;2
463;
46.31-1;2
46.32-0;2
46.33-8;2
46.34-6;2
46.35-4;2
46.36-2;2
46.37-1;2
46.39-7;2
464;
46.41-9;2
46.42-7;2
46.43-5;2
46.44-3;2
46.45-1;2
46.46-0;2
46.47-8;2
46.49-4;2
465;
46.51-6;3
46.52-4;3
466;
46.61-3;3
46.62-1;3
46.63-0;3
46.64-8;3
46.65-6;3
46.69-9;3
467;
46.71-1;3
46.72-9;3
46.73-7;3
46.74-5;3
46.79-6;3
468;
46.81-8;3
46.82-6;3
46.83-4;3
46.84-2;3
46.85-1;3
46.86-9;3
46.87-7;3
46.89-3;3
469;
46.91-5;2
46.92-3;2
46.93-1;2
47;
471;
47.11-3;2
47.12-1;2
47.13-0;2
472;
47.21-1;2
47.22-9;3
47.23-7;2
47.24-5;2
47.29-6;2
473;
47.31-8;3
47.32-6;3
474;
47.41-5;2
47.42-3;1
47.43-1;2
47.44-0;2
475;
47.51-2;1
47.52-1;1
47.53-9;1
47.54-7;1
47.55-5;1
47.56-3;1
47.57-1;1
47.59-8;1
476;
47.61-0;1
47.62-8;1
47.63-6;1
477;
47.71-7;2
47.72-5;1
47.73-3;1
47.74-1;1
478;
47.81-4;1
47.82-2;1
47.83-1;1
47.84-9;3
47.85-7;2
47.89-0;1
479;
47.90-3;2
H;
49;
491;
49.11-6;3
49.12-4;3
492;
49.21-3;3
49.22-1;3
49.23-0;3
49.24-8;3
49.29-9;3
493;
49.30-2;3
494;
49.40-0;3
495;
49.50-7;3
50;
501;
50.11-4;3
50.12-2;3
502;
50.21-1;3
50.22-0;3
503;
50.30-1;3
509;
50.91-2;3
50.99-8;3
51;
511;
51.11-1;3
51.12-9;3
512;
51.20-0;3
513;
51.30-7;3
52;
521;
52.11-7;3
52.12-5;3
522;
52.21-4;3
52.22-2;3
52.23-1;3
52.29-0;3
523;
52.31-1;3
52.32-0;3
52.39-7;3
524;
52.40-1;3
525;
52.50-8;3
53;
531;
53.10-5;2
532;
53.20-2;2
I;
55;
551;
55.10-8;2
559;
55.90-6;2
56;
561;
56.11-2;2
56.12-1;2
562;
56.20-1;2
J;
58;
581;
58.11-5;3
58.12-3;3
58.13-1;3
58.19-1;3
582;
58.21-2;3
58.22-1;3
58.23-9;3
58.29-8;3
59;
591;
59.11-1;2
59.12-0;2
59.13-8;2
59.14-6;2
592;
59.20-1;2
60;
601;
60.10-1;2
602;
60.21-7;2
60.22-5;2
61;
611;
61.10-8;2
612;
61.20-5;2
613;
61.30-2;2
614;
61.41-8;2
61.42-6;2
61.43-4;2
619;
61.90-6;2
62;
620;
62.01-5;2
62.02-3;2
62.03-1;2
62.04-0;2
62.09-1;2
63;
631;
63.11-9;2
63.19-4;2
639;
63.91-7;2
63.99-2;2
K;
64;
641;1
64.10-7;1
642;
64.21-2;1
64.22-1;1
64.23-9;1
64.24-7;1
643;
64.31-0;1
64.32-8;1
64.33-6;1
64.34-4;1
64.35-2;1
64.36-1;1
64.37-9;1
64.38-7;1
644;
64.40-9;1
645;
64.50-6;1
646;
64.61-1;1
64.62-0;1
64.63-8;1
647;
64.70-1;1
649;
64.91-3;1
64.92-1;1
64.93-0;1
64.99-9;1
65;
651;
65.11-1;1
65.12-0;1
652;
65.20-1;1
653;
65.30-8;1
654;
65.41-3;1
65.42-1;1
655;
65.50-2;1
66;
661;
66.11-8;1
66.12-6;1
66.13-4;1
66.19-3;1
662;
66.21-5;1
66.22-3;1
66.29-1;1
663;
66.30-4;1
L;
68;
681;
68.10-2;1
682;
68.21-8;1
68.22-6;1
M;
69;
691;
69.11-7;1
69.12-5;1
692;
69.20-6;1
70;
701;
70.10-7;1
702;
70.20-4;1
71;
711;
71.11-1;1
71.12-0;1
71.19-7;1
712;
71.20-1;2
72;
721;
72.10-0;2
722;
72.20-7;2
73;
731;
73.11-4;1
73.12-2;1
73.19-0;1
732;
73.20-3;1
7475;
741;
74.10-2;1
742;
74.20-0;2
749;
74.90-1;1
;
750;
75.00-1;3
N;
77;
771;
77.11-0;1
77.19-5;1
772;
77.21-7;1
77.22-5;1
77.23-3;1
77.29-2;1
773;
77.31-4;1
77.32-2;1
77.33-1;1
77.39-0;1
774;
77.40-3;1
78;
781;
78.10-8;1
782;
78.20-5;1
783;
78.30-2;1
79;
791;
79.11-2;1
79.12-1;1
799;
79.90-2;1
80;
801;
80.11-1;3
80.12-9;3
802;
80.20-0;3
803;
80.30-7;3
81;
811;
81.11-7;2
81.12-5;2
812;
81.21-4;3
81.22-2;3
81.29-0;3
813;
81.30-3;1
82;
821;
82.11-3;1
82.19-9;2
822;
82.20-2;2
823;
82.30-0;2
829;
82.91-1;2
82.92-0;2
82.99-7;2
O;
84;
841;
84.11-6;1
84.12-4;1
84.13-2;1
842;
84.21-3;1
84.22-1;1
84.23-0;1
84.24-8;1
84.25-6;1
843;
84.30-2;1
P;
85;
851;
85.11-2;2
85.12-1;2
85.13-9;2
852;
85.20-1;2
853;
85.31-7;2
85.32-5;2
85.33-3;2
854;
85.41-4;2
85.42-2;2
855;
85.50-3;2
859;
85.91-1;2
85.92-9;2
85.93-7;2
85.99-6;2
Q;
86;
861;
86.10-1;3
862;
86.21-6;3
86.22-4;3
863;
86.30-5;3
864;
86.40-2;3
865;
86.50-0;2
866;
86.60-7;1
869;
86.90-9;1
87;
871;
87.11-5;1
87.12-3;1
872;
87.20-4;1
873;1
87.30-1;1
88;
880;
88.00-6;1
R;
90;
900;
90.01-9;2
90.02-7;2
90.03-5;1
91;
910;
91.01-5;2
91.02-3;2
91.03-1;2
92;
920;
92.00-3;1
93;
931;
93.11-5;1
93.12-3;2
93.13-1;2
93.19-1;2
932;
93.21-2;2
93.29-8;2
S;
94;
941;
94.11-1;1
94.12-0;1
942;
94.20-1;1
943;
94.30-8;1
949;
94.91-0;1
94.92-8;1
94.93-6;1
94.99-5;1
95;
951;
95.11-8;3
95.12-6;3
952;
95.21-5;3
95.29-1;3
96;
960;
96.01-7;2
96.02-5;2
96.03-3;2
96.09-2;2
T;
97;
970;
97.00-5;2
U;
99;
990;
99.00-8;1